VXD:Rad:FWD:Ch0:DoseRate       2018-03-20 00:00:00.014226 40.4296875
VXD:Rad:FWD:Ch2:DoseRate       2018-03-20 00:00:00.014251 114.2578125
VXD:Rad:FWD:Ch1:DoseRate       2018-03-20 00:00:00.014275 178.7109375
VXD:Rad:FWD:Ch3:DoseRate       2018-03-20 00:00:00.014296 -186.9140625
VXD:Rad:BWD:Ch2:DoseRate       2018-03-20 00:00:00.110120 -0.000248905936696969
VXD:Rad:BWD:Ch0:DoseRate       2018-03-20 00:00:00.110137 -0.00022857321719118
VXD:Rad:BWD:Ch1:DoseRate       2018-03-20 00:00:00.110141 -0.000787428966929391
VXD:Rad:BWD:Ch3:DoseRate       2018-03-20 00:00:00.110151 -0.000377683969261569
VXD:Rad:FWD:Ch0:DoseRate       2018-03-21 00:00:00.124786 141.796875
VXD:Rad:FWD:Ch1:DoseRate       2018-03-21 00:00:00.124803 143.5546875
VXD:Rad:FWD:Ch2:DoseRate       2018-03-21 00:00:00.124822 -15.8203125
VXD:Rad:FWD:Ch3:DoseRate       2018-03-21 00:00:00.124839 -13.4765625
VXD:Rad:BWD:Ch0:DoseRate       2018-03-21 00:00:00.220608 -0.000320620437171649
VXD:Rad:BWD:Ch1:DoseRate       2018-03-21 00:00:00.220627 -0.000233459387476266
VXD:Rad:BWD:Ch2:DoseRate       2018-03-21 00:00:00.220653 -0.000309546577790719
VXD:Rad:BWD:Ch3:DoseRate       2018-03-21 00:00:00.220668 -0.000160320536644381
VXD:Rad:FWD:Ch0:DoseRate       2018-03-21 00:00:00.235378 74.4140625
VXD:Rad:FWD:Ch1:DoseRate       2018-03-21 00:00:00.235394 227.34375
VXD:Rad:FWD:Ch2:DoseRate       2018-03-21 00:00:00.235411 -95.5078125
VXD:Rad:FWD:Ch3:DoseRate       2018-03-21 00:00:00.235426 -91.9921875
VXD:Rad:BWD:Ch2:DoseRate       2018-03-21 00:00:00.331158 3.23634198655312e-05
VXD:Rad:BWD:Ch0:DoseRate       2018-03-21 00:00:00.331177 0.000184115312125226
VXD:Rad:BWD:Ch1:DoseRate       2018-03-21 00:00:00.331213 0.000129657137758108
VXD:Rad:BWD:Ch3:DoseRate       2018-03-21 00:00:00.331238 0.000615176097144681
VXD:Rad:FWD:Ch2:DoseRate       2018-03-21 00:00:00.346020 -49.8046875
VXD:Rad:FWD:Ch0:DoseRate       2018-03-21 00:00:00.346048 19.3359375
VXD:Rad:FWD:Ch1:DoseRate       2018-03-21 00:00:00.346060 234.375
VXD:Rad:FWD:Ch3:DoseRate       2018-03-21 00:00:00.346129 -152.34375
VXD:Rad:BWD:Ch2:DoseRate       2018-03-21 00:00:00.441716 4.6235521311562e-06
VXD:Rad:BWD:Ch0:DoseRate       2018-03-21 00:00:00.441731 -0.000288312472542743
VXD:Rad:BWD:Ch1:DoseRate       2018-03-21 00:00:00.441734 -0.000292326400952829
VXD:Rad:BWD:Ch3:DoseRate       2018-03-21 00:00:00.441740 -0.000150504123558444
VXD:Rad:FWD:Ch0:DoseRate       2018-03-21 00:00:00.456548 28.125
VXD:Rad:FWD:Ch2:DoseRate       2018-03-21 00:00:00.456627 -12.890625
VXD:Rad:FWD:Ch3:DoseRate       2018-03-21 00:00:00.456647 -151.7578125
VXD:Rad:FWD:Ch1:DoseRate       2018-03-21 00:00:00.456662 216.796875
VXD:Rad:BWD:Ch2:DoseRate       2018-03-21 00:00:00.552241 1.88160425999062e-05
VXD:Rad:BWD:Ch3:DoseRate       2018-03-21 00:00:00.552254 -0.000186263914085787
VXD:Rad:BWD:Ch0:DoseRate       2018-03-21 00:00:00.552260 4.87876112267882e-05
VXD:Rad:BWD:Ch1:DoseRate       2018-03-21 00:00:00.552267 -0.000467068483062204
VXD:Rad:FWD:Ch2:DoseRate       2018-03-21 00:00:00.567155 11.1328125
VXD:Rad:FWD:Ch3:DoseRate       2018-03-21 00:00:00.567179 -150
VXD:Rad:FWD:Ch0:DoseRate       2018-03-21 00:00:00.567196 66.796875
VXD:Rad:FWD:Ch1:DoseRate       2018-03-21 00:00:00.567214 188.0859375
VXD:Rad:BWD:Ch2:DoseRate       2018-03-21 00:00:00.662720 -0.000243099917868844
VXD:Rad:BWD:Ch3:DoseRate       2018-03-21 00:00:00.662733 -7.54786806873498e-05
VXD:Rad:BWD:Ch0:DoseRate       2018-03-21 00:00:00.662752 -0.000315743763265399
VXD:Rad:BWD:Ch1:DoseRate       2018-03-21 00:00:00.662760 0.000399825746976858
VXD:Rad:FWD:Ch0:DoseRate       2018-03-21 00:00:00.677729 -53.90625
VXD:Rad:FWD:Ch1:DoseRate       2018-03-21 00:00:00.677745 143.5546875
VXD:Rad:FWD:Ch2:DoseRate       2018-03-21 00:00:00.677763 -106.640625
VXD:Rad:FWD:Ch3:DoseRate       2018-03-22 00:00:00.677778 -8.7890625
VXD:Rad:BWD:Ch0:DoseRate       2018-03-22 00:00:00.773210 -0.000235888228050556
VXD:Rad:BWD:Ch1:DoseRate       2018-03-22 00:00:00.773224 0.000353351788969046
VXD:Rad:BWD:Ch2:DoseRate       2018-03-22 00:00:00.773231 -1.47298439625938e-05
VXD:Rad:BWD:Ch3:DoseRate       2018-03-22 00:00:00.773241 0.000185357438453275
VXD:Rad:FWD:Ch2:DoseRate       2018-03-22 00:00:00.788278 -96.6796875
VXD:Rad:FWD:Ch0:DoseRate       2018-03-22 00:00:00.788305 -25.1953125
VXD:Rad:FWD:Ch1:DoseRate       2018-03-22 00:00:00.788316 105.46875